<svg width="5775" height="1085" viewBox="0 0 5775 1085" fill="none" xmlns="http://www.w3.org/2000/svg">
<path d="M219.291 494C195.624 494 176.458 486.5 161.791 471.5C147.458 456.5 140.291 436.667 140.291 412V368C140.291 364.667 141.958 363 145.291 363H161.791C165.124 363 166.791 364.667 166.791 368V412.5C166.791 429.833 171.624 443.833 181.291 454.5C190.958 465.167 203.624 470.5 219.291 470.5C234.958 470.5 247.624 465.167 257.291 454.5C266.958 443.833 271.791 429.833 271.791 412.5V145C271.791 141.667 273.458 140 276.791 140H293.291C296.624 140 298.291 141.667 298.291 145V412C298.291 436.667 290.958 456.5 276.291 471.5C261.958 486.5 242.958 494 219.291 494Z" fill="white"/>
<path d="M771.451 158.5C771.451 161.833 769.785 163.5 766.451 163.5H647.951C646.618 163.5 645.951 164.167 645.951 165.5V301C645.951 302.333 646.618 303 647.951 303H723.951C727.285 303 728.951 304.667 728.951 308V321.5C728.951 324.833 727.285 326.5 723.951 326.5H647.951C646.618 326.5 645.951 327.167 645.951 328.5V464.5C645.951 465.833 646.618 466.5 647.951 466.5H766.451C769.785 466.5 771.451 468.167 771.451 471.5V485C771.451 488.333 769.785 490 766.451 490H624.451C621.118 490 619.451 488.333 619.451 485V145C619.451 141.667 621.118 140 624.451 140H766.451C769.785 140 771.451 141.667 771.451 145V158.5Z" fill="white"/>
<path d="M1224.51 490C1221.51 490 1219.68 488.5 1219.01 485.5L1205.51 420C1205.51 419.333 1205.18 418.833 1204.51 418.5C1204.18 418.167 1203.68 418 1203.01 418H1105.01C1104.35 418 1103.68 418.167 1103.01 418.5C1102.68 418.833 1102.51 419.333 1102.51 420L1089.01 485.5C1088.68 488.5 1086.85 490 1083.51 490H1067.01C1065.35 490 1064.01 489.5 1063.01 488.5C1062.35 487.5 1062.18 486.167 1062.51 484.5L1138.51 144.5C1139.18 141.5 1141.01 140 1144.01 140H1164.01C1167.35 140 1169.18 141.5 1169.51 144.5L1246.01 484.5V485.5C1246.01 488.5 1244.51 490 1241.51 490H1224.51ZM1108.01 394C1108.01 395.333 1108.51 396 1109.51 396H1198.01C1199.01 396 1199.51 395.333 1199.51 394L1155.01 182.5C1154.68 181.5 1154.35 181 1154.01 181C1153.68 181 1153.35 181.5 1153.01 182.5L1108.01 394Z" fill="white"/>
<path d="M1680.33 145C1680.33 141.667 1681.99 140 1685.33 140H1701.33C1704.66 140 1706.33 141.667 1706.33 145V485C1706.33 488.333 1704.66 490 1701.33 490H1681.83C1679.16 490 1677.33 488.667 1676.33 486L1569.83 206C1569.49 205 1568.99 204.667 1568.33 205C1567.66 205 1567.33 205.5 1567.33 206.5L1567.83 485C1567.83 488.333 1566.16 490 1562.83 490H1546.33C1542.99 490 1541.33 488.333 1541.33 485V145C1541.33 141.667 1542.99 140 1546.33 140H1565.33C1567.99 140 1569.83 141.333 1570.83 144L1677.83 422.5C1678.16 423.5 1678.66 424 1679.33 424C1679.99 423.667 1680.33 423 1680.33 422V145Z" fill="white"/>
<path d="M2017.97 344.5C2014.63 344.5 2012.97 342.833 2012.97 339.5V326C2012.97 322.667 2014.63 321 2017.97 321H2128.47C2131.8 321 2133.47 322.667 2133.47 326V339.5C2133.47 342.833 2131.8 344.5 2128.47 344.5H2017.97Z" fill="white"/>
<path d="M2522.26 139C2545.6 139 2564.43 147.833 2578.76 165.5C2593.1 182.833 2600.26 205.667 2600.26 234C2600.26 262.333 2593.1 285 2578.76 302C2564.76 319 2546.26 327.5 2523.26 327.5H2467.76C2466.43 327.5 2465.76 328.167 2465.76 329.5V485C2465.76 488.333 2464.1 490 2460.76 490H2444.26C2440.93 490 2439.26 488.333 2439.26 485V144C2439.26 140.667 2440.93 139 2444.26 139H2522.26ZM2519.26 305.5C2535.6 305.5 2548.76 299 2558.76 286C2568.76 273 2573.76 255.833 2573.76 234.5C2573.76 212.833 2568.76 195.5 2558.76 182.5C2548.76 169.5 2535.6 163 2519.26 163H2467.76C2466.43 163 2465.76 163.667 2465.76 165V303.5C2465.76 304.833 2466.43 305.5 2467.76 305.5H2519.26Z" fill="white"/>
<path d="M3037.04 145C3037.04 141.667 3038.7 140 3042.04 140H3058.54C3061.87 140 3063.54 141.667 3063.54 145V485C3063.54 488.333 3061.87 490 3058.54 490H3042.04C3038.7 490 3037.04 488.333 3037.04 485V328.5C3037.04 327.167 3036.37 326.5 3035.04 326.5H2936.04C2934.7 326.5 2934.04 327.167 2934.04 328.5V485C2934.04 488.333 2932.37 490 2929.04 490H2912.54C2909.2 490 2907.54 488.333 2907.54 485V145C2907.54 141.667 2909.2 140 2912.54 140H2929.04C2932.37 140 2934.04 141.667 2934.04 145V301C2934.04 302.333 2934.7 303 2936.04 303H3035.04C3036.37 303 3037.04 302.333 3037.04 301V145Z" fill="white"/>
<path d="M3397.4 490C3394.07 490 3392.4 488.333 3392.4 485V145C3392.4 141.667 3394.07 140 3397.4 140H3413.9C3417.23 140 3418.9 141.667 3418.9 145V485C3418.9 488.333 3417.23 490 3413.9 490H3397.4Z" fill="white"/>
<path d="M3752.87 490C3749.54 490 3747.87 488.333 3747.87 485V145C3747.87 141.667 3749.54 140 3752.87 140H3769.37C3772.7 140 3774.37 141.667 3774.37 145V464.5C3774.37 465.833 3775.04 466.5 3776.37 466.5H3893.37C3896.7 466.5 3898.37 468.167 3898.37 471.5V485C3898.37 488.333 3896.7 490 3893.37 490H3752.87Z" fill="white"/>
<path d="M4196.72 490C4193.38 490 4191.72 488.333 4191.72 485V145C4191.72 141.667 4193.38 140 4196.72 140H4213.22C4216.55 140 4218.22 141.667 4218.22 145V485C4218.22 488.333 4216.55 490 4213.22 490H4196.72Z" fill="white"/>
<path d="M4629.69 139C4653.02 139 4671.85 147.833 4686.19 165.5C4700.52 182.833 4707.69 205.667 4707.69 234C4707.69 262.333 4700.52 285 4686.19 302C4672.19 319 4653.69 327.5 4630.69 327.5H4575.19C4573.85 327.5 4573.19 328.167 4573.19 329.5V485C4573.19 488.333 4571.52 490 4568.19 490H4551.69C4548.35 490 4546.69 488.333 4546.69 485V144C4546.69 140.667 4548.35 139 4551.69 139H4629.69ZM4626.69 305.5C4643.02 305.5 4656.19 299 4666.19 286C4676.19 273 4681.19 255.833 4681.19 234.5C4681.19 212.833 4676.19 195.5 4666.19 182.5C4656.19 169.5 4643.02 163 4626.69 163H4575.19C4573.85 163 4573.19 163.667 4573.19 165V303.5C4573.19 304.833 4573.85 305.5 4575.19 305.5H4626.69Z" fill="white"/>
<path d="M5097.46 139C5120.79 139 5139.63 147.833 5153.96 165.5C5168.29 182.833 5175.46 205.667 5175.46 234C5175.46 262.333 5168.29 285 5153.96 302C5139.96 319 5121.46 327.5 5098.46 327.5H5042.96C5041.63 327.5 5040.96 328.167 5040.96 329.5V485C5040.96 488.333 5039.29 490 5035.96 490H5019.46C5016.13 490 5014.46 488.333 5014.46 485V144C5014.46 140.667 5016.13 139 5019.46 139H5097.46ZM5094.46 305.5C5110.79 305.5 5123.96 299 5133.96 286C5143.96 273 5148.96 255.833 5148.96 234.5C5148.96 212.833 5143.96 195.5 5133.96 182.5C5123.96 169.5 5110.79 163 5094.46 163H5042.96C5041.63 163 5040.96 163.667 5040.96 165V303.5C5040.96 304.833 5041.63 305.5 5042.96 305.5H5094.46Z" fill="white"/>
<path d="M5634.73 158.5C5634.73 161.833 5633.07 163.5 5629.73 163.5H5511.23C5509.9 163.5 5509.23 164.167 5509.23 165.5V301C5509.23 302.333 5509.9 303 5511.23 303H5587.23C5590.57 303 5592.23 304.667 5592.23 308V321.5C5592.23 324.833 5590.57 326.5 5587.23 326.5H5511.23C5509.9 326.5 5509.23 327.167 5509.23 328.5V464.5C5509.23 465.833 5509.9 466.5 5511.23 466.5H5629.73C5633.07 466.5 5634.73 468.167 5634.73 471.5V485C5634.73 488.333 5633.07 490 5629.73 490H5487.73C5484.4 490 5482.73 488.333 5482.73 485V145C5482.73 141.667 5484.4 140 5487.73 140H5629.73C5633.07 140 5634.73 141.667 5634.73 145V158.5Z" fill="white"/>
<path d="M3218.27 949C3193.6 949 3173.6 941.333 3158.27 926C3142.94 910.333 3135.27 889.833 3135.27 864.5V822.5C3135.27 819.167 3136.94 817.5 3140.27 817.5H3165.77C3169.1 817.5 3170.77 819.167 3170.77 822.5V865C3170.77 880.667 3175.1 893.5 3183.77 903.5C3192.44 913.167 3203.94 918 3218.27 918C3232.27 918 3243.6 913.167 3252.27 903.5C3261.27 893.5 3265.77 880.667 3265.77 865V600C3265.77 596.667 3267.44 595 3270.77 595H3296.27C3299.6 595 3301.27 596.667 3301.27 600V864.5C3301.27 889.833 3293.6 910.333 3278.27 926C3262.94 941.333 3242.94 949 3218.27 949ZM3705.66 949C3680 949 3659.33 940.167 3643.66 922.5C3628 904.833 3620.16 881.5 3620.16 852.5V600C3620.16 596.667 3621.83 595 3625.16 595H3650.66C3654 595 3655.66 596.667 3655.66 600V856.5C3655.66 874.833 3660.16 889.667 3669.16 901C3678.5 912.333 3690.66 918 3705.66 918C3721 918 3733.33 912.333 3742.66 901C3752 889.667 3756.66 874.833 3756.66 856.5V600C3756.66 596.667 3758.33 595 3761.66 595H3787.16C3790.5 595 3792.16 596.667 3792.16 600V852.5C3792.16 881.5 3784.16 904.833 3768.16 922.5C3752.5 940.167 3731.66 949 3705.66 949ZM4264.46 595C4267.79 595 4269.46 596.667 4269.46 600V621C4269.46 624.333 4267.79 626 4264.46 626H4198.46C4197.12 626 4196.46 626.667 4196.46 628V940C4196.46 943.333 4194.79 945 4191.46 945H4165.96C4162.62 945 4160.96 943.333 4160.96 940V628C4160.96 626.667 4160.29 626 4158.96 626H4096.96C4093.62 626 4091.96 624.333 4091.96 621V600C4091.96 596.667 4093.62 595 4096.96 595H4264.46ZM4712.38 945C4709.38 945 4707.38 943.667 4706.38 941L4655.38 786.5C4655.05 785.5 4654.38 785 4653.38 785H4609.88C4608.55 785 4607.88 785.667 4607.88 787V940C4607.88 943.333 4606.21 945 4602.88 945H4577.38C4574.05 945 4572.38 943.333 4572.38 940V600C4572.38 596.667 4574.05 595 4577.38 595H4659.88C4684.21 595 4703.88 604 4718.88 622C4733.88 639.667 4741.38 662.833 4741.38 691.5C4741.38 713.167 4736.71 731.833 4727.38 747.5C4718.05 763.167 4705.38 774.167 4689.38 780.5C4688.05 780.833 4687.55 781.667 4687.88 783L4742.38 939.5L4742.88 941.5C4742.88 943.833 4741.38 945 4738.38 945H4712.38ZM4609.88 626C4608.55 626 4607.88 626.667 4607.88 628V754.5C4607.88 755.833 4608.55 756.5 4609.88 756.5H4654.88C4670.21 756.5 4682.55 750.667 4691.88 739C4701.21 727 4705.88 711.167 4705.88 691.5C4705.88 671.833 4701.21 656 4691.88 644C4682.55 632 4670.21 626 4654.88 626H4609.88ZM5182.41 945C5179.41 945 5177.57 943.5 5176.91 940.5L5164.41 878.5C5164.41 877.833 5164.07 877.333 5163.41 877C5163.07 876.667 5162.57 876.5 5161.91 876.5H5071.41C5070.74 876.5 5070.07 876.667 5069.41 877C5069.07 877.333 5068.91 877.833 5068.91 878.5L5056.41 940.5C5056.07 943.5 5054.24 945 5050.91 945H5025.41C5023.74 945 5022.41 944.5 5021.41 943.5C5020.74 942.5 5020.57 941.167 5020.91 939.5L5095.91 599.5C5096.57 596.5 5098.41 595 5101.41 595H5131.41C5134.74 595 5136.57 596.5 5136.91 599.5L5212.91 939.5V940.5C5212.91 943.5 5211.41 945 5208.41 945H5182.41ZM5075.41 845.5C5075.41 846.833 5075.91 847.5 5076.91 847.5H5155.91C5156.91 847.5 5157.41 846.833 5157.41 845.5L5117.41 649C5117.07 648 5116.74 647.5 5116.41 647.5C5116.07 647.5 5115.74 648 5115.41 649L5075.41 845.5ZM5563.72 949C5539.05 949 5519.05 940.833 5503.72 924.5C5488.39 908.167 5480.72 886.833 5480.72 860.5V849C5480.72 845.667 5482.39 844 5485.72 844H5510.22C5513.55 844 5515.22 845.667 5515.22 849V859C5515.22 876.667 5519.72 891 5528.72 902C5537.72 912.667 5549.39 918 5563.72 918C5577.72 918 5589.39 912.833 5598.72 902.5C5608.05 892.167 5612.72 878.5 5612.72 861.5C5612.72 850.167 5610.39 840.5 5605.72 832.5C5601.39 824.167 5595.55 817 5588.22 811C5581.22 804.667 5569.39 795.167 5552.72 782.5C5536.05 770.167 5522.89 759.667 5513.22 751C5503.55 742 5495.55 731.333 5489.22 719C5483.22 706.667 5480.22 692.167 5480.22 675.5C5480.22 649.5 5487.72 629 5502.72 614C5517.72 598.667 5537.22 591 5561.22 591C5586.55 591 5606.72 599.333 5621.72 616C5637.05 632.333 5644.72 654.167 5644.72 681.5V694C5644.72 697.333 5643.05 699 5639.72 699H5614.72C5611.39 699 5609.72 697.333 5609.72 694V681C5609.72 663.333 5605.22 649.167 5596.22 638.5C5587.55 627.5 5575.89 622 5561.22 622C5547.89 622 5536.89 626.833 5528.22 636.5C5519.55 645.833 5515.22 659.167 5515.22 676.5C5515.22 686.833 5517.05 696 5520.72 704C5524.72 711.667 5530.55 719 5538.22 726C5545.89 733 5557.22 742.167 5572.22 753.5C5592.22 768.167 5607.05 780.167 5616.72 789.5C5626.72 798.5 5634.39 808.5 5639.72 819.5C5645.05 830.167 5647.72 843.167 5647.72 858.5C5647.72 885.833 5639.89 907.833 5624.22 924.5C5608.55 940.833 5588.39 949 5563.72 949Z" fill="white"/>
<rect x="5740.26" y="1050" width="35.0003" height="5715.44" transform="rotate(90 5740.26 1050)" fill="white"/>
<rect x="5740.26" y="0.000244141" width="35.0003" height="5715.44" transform="rotate(90 5740.26 0.000244141)" fill="white"/>
<rect x="34.7415" y="1085" width="34.7414" height="1085" transform="rotate(-180 34.7415 1085)" fill="white"/>
<rect x="5775" y="1085" width="34.7414" height="1085" transform="rotate(-180 5775 1085)" fill="white"/>
</svg>
