<svg width="448" height="363" viewBox="0 0 448 363" fill="none" xmlns="http://www.w3.org/2000/svg">
<path d="M247.881 1.03125H247.482L247.393 1.4196L247.881 1.53125C247.503 1.44459 247.418 1.42569 247.399 1.42236L247.393 1.42112V1.42198C247.393 1.42202 247.393 1.42206 247.393 1.4221L247.391 1.42963L247.384 1.45964L247.357 1.57906L247.249 2.05134L246.825 3.89706C246.454 5.51563 245.907 7.89379 245.208 10.9321C243.81 17.0087 241.801 25.726 239.358 36.2884C239.106 37.3748 238.85 38.4808 238.59 39.6055H237.756H237.256V40.1055V45.3651C232.65 65.2387 226.893 89.9606 220.891 115.44C206.98 174.498 191.766 237.58 186.524 253.819C184.655 259.608 183.15 264.561 181.844 268.856C181.315 270.597 180.818 272.23 180.344 273.767C178.696 279.102 177.315 283.274 175.739 286.824C172.605 293.884 168.688 298.507 160.27 304.843L160.239 304.866L160.212 304.893C148.438 316.99 132.949 323.053 113.695 323.053C92.6256 323.053 76.5767 317.382 65.4676 306.112C54.5156 294.836 49.0098 279.107 49.0098 258.855V258.355H48.5098H1.63477H1.13477V258.855C1.13477 291.515 11.0185 316.97 30.8378 335.152C50.6504 353.327 78.2923 362.383 113.695 362.383C130.728 362.383 145.041 360.983 158.181 356.659C171.328 352.333 183.272 345.089 195.582 333.437C217.392 312.795 221.309 292.903 226.849 264.776C227.527 261.337 228.228 257.775 228.99 254.073C230.297 247.72 233.084 234.934 236.753 218.34H321.496C361.769 218.34 392.746 209.047 414.352 190.386C436.132 171.554 446.996 144.792 446.996 110.174C446.996 77.3335 435.88 50.907 413.628 30.9454C391.538 10.9824 360.968 1.03125 321.984 1.03125H285.558H284.933H247.881ZM321.984 179.01H245.501C250.018 158.787 254.982 136.659 259.829 115.101C266.004 87.6383 271.988 61.1013 276.615 40.6055H324.665C347.846 41.0927 366.024 47.6556 379.257 60.2431C392.489 72.8298 399.121 89.6179 399.121 110.662C399.121 132.855 392.484 149.794 379.27 161.558C366.046 173.168 346.976 179.01 321.984 179.01Z" fill="white" stroke="white"/>
</svg>
